02/13/17 16:57

Data Cleaning (3 points):
Score += 3

Training and Testing (9 points):
Score += 9

Analysis (3 points):
Score += 3

Total score: 15/15 = 100.0%

Excellent!

--------------------------------------------------------------------------------

